<?xml version="1.0" encoding="UTF-8"?>
<svg width="180px" height="39px" viewBox="0 0 180 39" version="1.1" xmlns="http://www.w3.org/2000/svg" xmlns:xlink="http://www.w3.org/1999/xlink">
    <!-- Generator: Sketch 50.2 (55047) - http://www.bohemiancoding.com/sketch -->
    <title>logo</title>
    <desc>Created with Sketch.</desc>
    <defs></defs>
    <g id="Page-1" stroke="none" stroke-width="1" fill="none" fill-rule="evenodd">
        <g id="4---About" transform="translate(-275.000000, -1287.000000)">
            <g id="logo" transform="translate(275.000000, 1287.000000)">
                <polygon id="Shape" fill="#FFFFFF" points="16.6226913 2.78909091 165.799472 2.78909091 165.799472 35.9509091 16.6226913 35.9509091"></polygon>
                <path d="M19.4722955,0.118181818 L160.503958,0.118181818 C171.189974,0.118181818 179.952507,8.81636364 179.952507,19.4763636 C179.952507,30.1127273 171.21372,38.8345455 160.503958,38.8345455 L19.4722955,38.8345455 C8.78627968,38.8345455 0.0237467018,30.1363636 0.0237467018,19.4763636 C0.0237467018,8.81636364 8.78627968,0.118181818 19.4722955,0.118181818 Z M20.9208443,5.62545455 C20.9208443,5.62545455 18.3324538,9.36 18.8548813,18.6254545 C19.1398417,23.5654545 20.6121372,26.5436364 20.7783641,28.2927273 C20.8970976,29.64 20.8733509,31.0109091 20.6121372,32.2163636 L25.646438,32.2163636 C25.6701847,31.4127273 25.6226913,30.3490909 25.5514512,29.7109091 C27.3087071,30.6090909 32.3430079,33.3036364 37.4960422,32.8545455 C42.9102902,32.3818182 45.7598945,29.2145455 46.1398417,26.5436364 C46.5672823,23.3290909 45.7598945,20.1854545 41.5092348,18.3418182 C44.1688654,16.7818182 45.5461741,13.7563636 44.9525066,10.9436364 C44.2875989,7.68181818 40.2506596,4.44363636 34.4327177,6.02727273 C28.8997361,7.51636364 25.2902375,8.43818182 20.9208443,5.62545455 Z M25.1477573,16.4036364 C26.3113456,17.0181818 30.5145119,18.9090909 34.7176781,16.5454545 C38.9683377,14.1345455 36.8311346,9.26545455 32.3192612,9.90363636 C28.2823219,10.4709091 25.9076517,14.2763636 25.1477573,16.4036364 Z M24.530343,19.8309091 C24.292876,21.2490909 24.3166227,23.3290909 24.6965699,24.9127273 C25.3852243,25.5272727 29.8733509,28.4818182 33.530343,28.3163636 C37.8997361,28.1272727 38.707124,21.4381818 32.7467018,21.2254545 C29.2084433,21.1072727 26.3825858,20.4218182 24.530343,19.8309091 Z M61.3852243,5.48363636 C53.6912929,5.48363636 47.4221636,11.6527273 47.4221636,19.24 C47.4221636,26.8036364 53.6912929,32.9963636 61.3852243,32.9963636 C69.0791557,32.9963636 75.348285,26.8272727 75.348285,19.24 C75.3720317,11.6763636 69.1029024,5.48363636 61.3852243,5.48363636 Z M61.3852243,8.55636364 C58.4881266,8.55636364 56.1134565,13.3072727 56.1134565,19.1218182 C56.1134565,24.9363636 58.4881266,29.6872727 61.3852243,29.6872727 C64.2823219,29.6872727 66.6569921,24.9363636 66.6569921,19.1218182 C66.6569921,13.3072727 64.3060686,8.55636364 61.3852243,8.55636364 Z M119.327177,5.38909091 C111.633245,5.38909091 105.364116,11.6527273 105.364116,19.24 C105.364116,26.8036364 111.633245,32.9963636 119.327177,32.9963636 C124.717678,32.9963636 129.585752,29.9472727 131.912929,25.5509091 C132.815303,23.8490909 131.580475,23.9436364 130.630607,24.8418182 C128.730871,26.6145455 126.807388,28.1981818 122.627968,28.2454545 C119.16095,28.2690909 114.435356,24.7236364 114.340369,19.1218182 C114.245383,12.7636364 118.234828,8.79272727 121.796834,8.74545455 C124.266491,8.69818182 126.926121,10.2818182 126.546174,14.1109091 C126.403694,15.5527273 126.949868,16.12 128.540897,15.0563636 C130.60686,13.6854545 133.124011,9.78545455 133.195251,5.55454545 C132.055409,6.66545455 129.704485,8.86363636 126.403694,7.04363636 C124.432718,5.95636364 121.701847,5.38909091 119.327177,5.38909091 Z M87.6253298,5.60181818 C80.1926121,6.16909091 77.4854881,10.1636364 77.2242744,13.78 C76.8443272,18.6490909 81.0474934,20.7290909 83.707124,21.5090909 C86.0580475,22.1945455 88.9313984,22.6672727 92.7546174,23.1636364 C97.8601583,23.8490909 96.9340369,28.6236364 92.6833773,29.4272727 C91.5197889,29.64 89.5488127,29.7345455 87.4591029,29.4036364 C84.4907652,28.9072727 81.7836412,27.4181818 81.7598945,25.3145455 C81.7361478,23.8727273 81.2849604,23.5418182 79.6701847,24.4636364 C77.4617414,25.7163636 74.8496042,28.6709091 74.7783641,32.9018182 C75.9182058,31.72 78.8390501,29.4509091 83.4459103,31.3890909 C85.5118734,32.2636364 89.0976253,33.1854545 92.7308707,32.9490909 C100.163588,32.4527273 103.060686,28.1036364 103.3219,24.4872727 C103.53562,21.5327273 102.039578,18.72 99.5461741,17.2309091 C95.6279683,14.8909091 92.0422164,14.7018182 87.1741425,13.8509091 C82.8522427,13.0945455 83.8021108,9.76181818 87.9577836,9.02909091 C89.121372,8.81636364 91.0923483,8.72181818 93.182058,9.05272727 C96.1503958,9.54909091 99.0474934,11.0381818 98.9762533,13.1418182 C98.9287599,14.5836364 99.3562005,14.9145455 100.970976,13.9927273 C103.17942,12.74 105.791557,9.78545455 105.862797,5.55454545 C104.722955,6.73636364 102.443272,9.00545455 97.4802111,7.06727273 C95.414248,6.24 91.2585752,5.31818182 87.6253298,5.60181818 Z M149.817942,32.2163636 L163.567282,32.2163636 C162.28496,30.9872727 160.978892,29.1436364 160.670185,26.7090909 C160.05277,21.6509091 157.915567,16.3327273 154.068602,12.2436364 C150.649077,8.60363636 149.058047,7.35090909 147.182058,4.89272727 C145.353562,6.97272727 144.641161,7.54 140.485488,11.5581818 C134.620053,17.2072727 134.430079,24.0854545 133.195251,27.2763636 C132.411609,29.2854545 130.986807,30.9636364 129.609499,32.24 L139.868074,32.24 C138.989446,31.1290909 138.395778,29.8290909 138.087071,28.4109091 C142.741425,28.3636364 148.108179,25.5745455 150.98153,23.1163636 C151.978892,25.3618182 151.717678,26.8509091 151.575198,28.2690909 C151.408971,29.5927273 150.69657,31.0109091 149.817942,32.2163636 Z M148.891821,19.6654545 C146.992084,16.9945455 145.258575,14.7254545 144.379947,12.4327273 C141.269129,14.3945455 138.134565,19.7127273 137.873351,24.8418182 C140.343008,24.7236364 144.664908,23.9436364 148.891821,19.6654545 Z" id="Shape" fill="#ED1C24"></path>
            </g>
        </g>
    </g>
</svg>